%!PS-Adobe-3.0
%%Creator: graphviz version 2.36.0 (20140111.2315)
%%Title: %3
%%Pages: (atend)
%%BoundingBox: (atend)
%%EndComments
save
%%BeginProlog
/DotDict 200 dict def
DotDict begin

/setupLatin1 {
mark
/EncodingVector 256 array def
 EncodingVector 0

ISOLatin1Encoding 0 255 getinterval putinterval
EncodingVector 45 /hyphen put

% Set up ISO Latin 1 character encoding
/starnetISO {
        dup dup findfont dup length dict begin
        { 1 index /FID ne { def }{ pop pop } ifelse
        } forall
        /Encoding EncodingVector def
        currentdict end definefont
} def
/Times-Roman starnetISO def
/Times-Italic starnetISO def
/Times-Bold starnetISO def
/Times-BoldItalic starnetISO def
/Helvetica starnetISO def
/Helvetica-Oblique starnetISO def
/Helvetica-Bold starnetISO def
/Helvetica-BoldOblique starnetISO def
/Courier starnetISO def
/Courier-Oblique starnetISO def
/Courier-Bold starnetISO def
/Courier-BoldOblique starnetISO def
cleartomark
} bind def

%%BeginResource: procset graphviz 0 0
/coord-font-family /Times-Roman def
/default-font-family /Times-Roman def
/coordfont coord-font-family findfont 8 scalefont def

/InvScaleFactor 1.0 def
/set_scale {
       dup 1 exch div /InvScaleFactor exch def
       scale
} bind def

% styles
/solid { [] 0 setdash } bind def
/dashed { [9 InvScaleFactor mul dup ] 0 setdash } bind def
/dotted { [1 InvScaleFactor mul 6 InvScaleFactor mul] 0 setdash } bind def
/invis {/fill {newpath} def /stroke {newpath} def /show {pop newpath} def} bind def
/bold { 2 setlinewidth } bind def
/filled { } bind def
/unfilled { } bind def
/rounded { } bind def
/diagonals { } bind def
/tapered { } bind def

% hooks for setting color 
/nodecolor { sethsbcolor } bind def
/edgecolor { sethsbcolor } bind def
/graphcolor { sethsbcolor } bind def
/nopcolor {pop pop pop} bind def

/beginpage {	% i j npages
	/npages exch def
	/j exch def
	/i exch def
	/str 10 string def
	npages 1 gt {
		gsave
			coordfont setfont
			0 0 moveto
			(\() show i str cvs show (,) show j str cvs show (\)) show
		grestore
	} if
} bind def

/set_font {
	findfont exch
	scalefont setfont
} def

% draw text fitted to its expected width
/alignedtext {			% width text
	/text exch def
	/width exch def
	gsave
		width 0 gt {
			[] 0 setdash
			text stringwidth pop width exch sub text length div 0 text ashow
		} if
	grestore
} def

/boxprim {				% xcorner ycorner xsize ysize
		4 2 roll
		moveto
		2 copy
		exch 0 rlineto
		0 exch rlineto
		pop neg 0 rlineto
		closepath
} bind def

/ellipse_path {
	/ry exch def
	/rx exch def
	/y exch def
	/x exch def
	matrix currentmatrix
	newpath
	x y translate
	rx ry scale
	0 0 1 0 360 arc
	setmatrix
} bind def

/endpage { showpage } bind def
/showpage { } def

/layercolorseq
	[	% layer color sequence - darkest to lightest
		[0 0 0]
		[.2 .8 .8]
		[.4 .8 .8]
		[.6 .8 .8]
		[.8 .8 .8]
	]
def

/layerlen layercolorseq length def

/setlayer {/maxlayer exch def /curlayer exch def
	layercolorseq curlayer 1 sub layerlen mod get
	aload pop sethsbcolor
	/nodecolor {nopcolor} def
	/edgecolor {nopcolor} def
	/graphcolor {nopcolor} def
} bind def

/onlayer { curlayer ne {invis} if } def

/onlayers {
	/myupper exch def
	/mylower exch def
	curlayer mylower lt
	curlayer myupper gt
	or
	{invis} if
} def

/curlayer 0 def

%%EndResource
%%EndProlog
%%BeginSetup
14 default-font-family set_font
1 setmiterlimit
% /arrowlength 10 def
% /arrowwidth 5 def

% make sure pdfmark is harmless for PS-interpreters other than Distiller
/pdfmark where {pop} {userdict /pdfmark /cleartomark load put} ifelse
% make '<<' and '>>' safe on PS Level 1 devices
/languagelevel where {pop languagelevel}{1} ifelse
2 lt {
    userdict (<<) cvn ([) cvn load put
    userdict (>>) cvn ([) cvn load put
} if

%%EndSetup
setupLatin1
%%Page: 1 1
%%PageBoundingBox: 36 36 326 1016
%%PageOrientation: Portrait
0 0 1 beginpage
gsave
36 36 290 980 boxprim clip newpath
1 1 set_scale 0 rotate 40 40 translate
% entree
gsave
1 setlinewidth
0 0 0 nodecolor
32 954 32.25 18 ellipse_path stroke
0 0 0 nodecolor
14 /Times-Roman set_font
15 950.3 moveto 34 (entree) alignedtext
grestore
% 11
gsave
1 setlinewidth
0 0 0 nodecolor
32 882 27 18 ellipse_path stroke
0 0 0 nodecolor
14 /Times-Roman set_font
25 878.3 moveto 14 (11) alignedtext
grestore
% entree--11
gsave
1 setlinewidth
0 0 0 edgecolor
newpath 32 935.7 moveto
32 924.85 32 910.92 32 900.1 curveto
stroke
grestore
% 21
gsave
1 setlinewidth
0 0 0 nodecolor
32 810 27 18 ellipse_path stroke
0 0 0 nodecolor
14 /Times-Roman set_font
25 806.3 moveto 14 (21) alignedtext
grestore
% 11--21
gsave
1 setlinewidth
0 0 0 edgecolor
newpath 32 863.7 moveto
32 852.85 32 838.92 32 828.1 curveto
stroke
grestore
% sortie
gsave
1 setlinewidth
0 0 0 nodecolor
252 90 30.32 18 ellipse_path stroke
0 0 0 nodecolor
14 /Times-Roman set_font
236.5 86.3 moveto 31 (sortie) alignedtext
grestore
% 15
gsave
1 setlinewidth
0 0 0 nodecolor
214 18 27 18 ellipse_path stroke
0 0 0 nodecolor
14 /Times-Roman set_font
207 14.3 moveto 14 (15) alignedtext
grestore
% sortie--15
gsave
1 setlinewidth
0 0 0 edgecolor
newpath 243.19 72.76 moveto
237.05 61.46 228.89 46.44 222.77 35.15 curveto
stroke
grestore
% 31
gsave
1 setlinewidth
0 0 0 nodecolor
32 738 27 18 ellipse_path stroke
0 0 0 nodecolor
14 /Times-Roman set_font
25 734.3 moveto 14 (31) alignedtext
grestore
% 21--31
gsave
1 setlinewidth
0 0 0 edgecolor
newpath 32 791.7 moveto
32 780.85 32 766.92 32 756.1 curveto
stroke
grestore
% 32
gsave
1 setlinewidth
0 0 0 nodecolor
104 666 27 18 ellipse_path stroke
0 0 0 nodecolor
14 /Times-Roman set_font
97 662.3 moveto 14 (32) alignedtext
grestore
% 31--32
gsave
1 setlinewidth
0 0 0 edgecolor
newpath 46.57 722.83 moveto
58.98 710.77 76.73 693.51 89.2 681.38 curveto
stroke
grestore
% 22
gsave
1 setlinewidth
0 0 0 nodecolor
104 594 27 18 ellipse_path stroke
0 0 0 nodecolor
14 /Times-Roman set_font
97 590.3 moveto 14 (22) alignedtext
grestore
% 32--22
gsave
1 setlinewidth
0 0 0 edgecolor
newpath 104 647.7 moveto
104 636.85 104 622.92 104 612.1 curveto
stroke
grestore
% 41
gsave
1 setlinewidth
0 0 0 nodecolor
104 810 27 18 ellipse_path stroke
0 0 0 nodecolor
14 /Times-Roman set_font
97 806.3 moveto 14 (41) alignedtext
grestore
% 42
gsave
1 setlinewidth
0 0 0 nodecolor
104 738 27 18 ellipse_path stroke
0 0 0 nodecolor
14 /Times-Roman set_font
97 734.3 moveto 14 (42) alignedtext
grestore
% 41--42
gsave
1 setlinewidth
0 0 0 edgecolor
newpath 104 791.7 moveto
104 780.85 104 766.92 104 756.1 curveto
stroke
grestore
% 42--32
gsave
1 setlinewidth
0 0 0 edgecolor
newpath 104 719.7 moveto
104 708.85 104 694.92 104 684.1 curveto
stroke
grestore
% 23
gsave
1 setlinewidth
0 0 0 nodecolor
140 522 27 18 ellipse_path stroke
0 0 0 nodecolor
14 /Times-Roman set_font
133 518.3 moveto 14 (23) alignedtext
grestore
% 22--23
gsave
1 setlinewidth
0 0 0 edgecolor
newpath 112.35 576.76 moveto
118.17 565.46 125.89 550.44 131.7 539.15 curveto
stroke
grestore
% 33
gsave
1 setlinewidth
0 0 0 nodecolor
140 450 27 18 ellipse_path stroke
0 0 0 nodecolor
14 /Times-Roman set_font
133 446.3 moveto 14 (33) alignedtext
grestore
% 23--33
gsave
1 setlinewidth
0 0 0 edgecolor
newpath 140 503.7 moveto
140 492.85 140 478.92 140 468.1 curveto
stroke
grestore
% 12
gsave
1 setlinewidth
0 0 0 nodecolor
176 810 27 18 ellipse_path stroke
0 0 0 nodecolor
14 /Times-Roman set_font
169 806.3 moveto 14 (12) alignedtext
grestore
% 13
gsave
1 setlinewidth
0 0 0 nodecolor
176 738 27 18 ellipse_path stroke
0 0 0 nodecolor
14 /Times-Roman set_font
169 734.3 moveto 14 (13) alignedtext
grestore
% 12--13
gsave
1 setlinewidth
0 0 0 edgecolor
newpath 176 791.7 moveto
176 780.85 176 766.92 176 756.1 curveto
stroke
grestore
% 14
gsave
1 setlinewidth
0 0 0 nodecolor
176 666 27 18 ellipse_path stroke
0 0 0 nodecolor
14 /Times-Roman set_font
169 662.3 moveto 14 (14) alignedtext
grestore
% 13--14
gsave
1 setlinewidth
0 0 0 edgecolor
newpath 176 719.7 moveto
176 708.85 176 694.92 176 684.1 curveto
stroke
grestore
% 24
gsave
1 setlinewidth
0 0 0 nodecolor
176 594 27 18 ellipse_path stroke
0 0 0 nodecolor
14 /Times-Roman set_font
169 590.3 moveto 14 (24) alignedtext
grestore
% 14--24
gsave
1 setlinewidth
0 0 0 edgecolor
newpath 176 647.7 moveto
176 636.85 176 622.92 176 612.1 curveto
stroke
grestore
% 24--23
gsave
1 setlinewidth
0 0 0 edgecolor
newpath 167.65 576.76 moveto
161.83 565.46 154.11 550.44 148.3 539.15 curveto
stroke
grestore
% 34
gsave
1 setlinewidth
0 0 0 nodecolor
104 378 27 18 ellipse_path stroke
0 0 0 nodecolor
14 /Times-Roman set_font
97 374.3 moveto 14 (34) alignedtext
grestore
% 33--34
gsave
1 setlinewidth
0 0 0 edgecolor
newpath 131.65 432.76 moveto
125.83 421.46 118.11 406.44 112.3 395.15 curveto
stroke
grestore
% 43
gsave
1 setlinewidth
0 0 0 nodecolor
176 378 27 18 ellipse_path stroke
0 0 0 nodecolor
14 /Times-Roman set_font
169 374.3 moveto 14 (43) alignedtext
grestore
% 33--43
gsave
1 setlinewidth
0 0 0 edgecolor
newpath 148.35 432.76 moveto
154.17 421.46 161.89 406.44 167.7 395.15 curveto
stroke
grestore
% 44
gsave
1 setlinewidth
0 0 0 nodecolor
176 306 27 18 ellipse_path stroke
0 0 0 nodecolor
14 /Times-Roman set_font
169 302.3 moveto 14 (44) alignedtext
grestore
% 43--44
gsave
1 setlinewidth
0 0 0 edgecolor
newpath 176 359.7 moveto
176 348.85 176 334.92 176 324.1 curveto
stroke
grestore
% 45
gsave
1 setlinewidth
0 0 0 nodecolor
176 234 27 18 ellipse_path stroke
0 0 0 nodecolor
14 /Times-Roman set_font
169 230.3 moveto 14 (45) alignedtext
grestore
% 44--45
gsave
1 setlinewidth
0 0 0 edgecolor
newpath 176 287.7 moveto
176 276.85 176 262.92 176 252.1 curveto
stroke
grestore
% 35
gsave
1 setlinewidth
0 0 0 nodecolor
176 162 27 18 ellipse_path stroke
0 0 0 nodecolor
14 /Times-Roman set_font
169 158.3 moveto 14 (35) alignedtext
grestore
% 45--35
gsave
1 setlinewidth
0 0 0 edgecolor
newpath 176 215.7 moveto
176 204.85 176 190.92 176 180.1 curveto
stroke
grestore
% 25
gsave
1 setlinewidth
0 0 0 nodecolor
176 90 27 18 ellipse_path stroke
0 0 0 nodecolor
14 /Times-Roman set_font
169 86.3 moveto 14 (25) alignedtext
grestore
% 35--25
gsave
1 setlinewidth
0 0 0 edgecolor
newpath 176 143.7 moveto
176 132.85 176 118.92 176 108.1 curveto
stroke
grestore
% 25--15
gsave
1 setlinewidth
0 0 0 edgecolor
newpath 184.81 72.76 moveto
190.95 61.46 199.11 46.44 205.23 35.15 curveto
stroke
grestore
endpage
showpage
grestore
%%PageTrailer
%%EndPage: 1
%%Trailer
%%Pages: 1
%%BoundingBox: 36 36 326 1016
end
restore
%%EOF
