%!PS-Adobe-3.0
%%Creator: graphviz version 2.36.0 (20140111.2315)
%%Title: %3
%%Pages: (atend)
%%BoundingBox: (atend)
%%EndComments
save
%%BeginProlog
/DotDict 200 dict def
DotDict begin

/setupLatin1 {
mark
/EncodingVector 256 array def
 EncodingVector 0

ISOLatin1Encoding 0 255 getinterval putinterval
EncodingVector 45 /hyphen put

% Set up ISO Latin 1 character encoding
/starnetISO {
        dup dup findfont dup length dict begin
        { 1 index /FID ne { def }{ pop pop } ifelse
        } forall
        /Encoding EncodingVector def
        currentdict end definefont
} def
/Times-Roman starnetISO def
/Times-Italic starnetISO def
/Times-Bold starnetISO def
/Times-BoldItalic starnetISO def
/Helvetica starnetISO def
/Helvetica-Oblique starnetISO def
/Helvetica-Bold starnetISO def
/Helvetica-BoldOblique starnetISO def
/Courier starnetISO def
/Courier-Oblique starnetISO def
/Courier-Bold starnetISO def
/Courier-BoldOblique starnetISO def
cleartomark
} bind def

%%BeginResource: procset graphviz 0 0
/coord-font-family /Times-Roman def
/default-font-family /Times-Roman def
/coordfont coord-font-family findfont 8 scalefont def

/InvScaleFactor 1.0 def
/set_scale {
       dup 1 exch div /InvScaleFactor exch def
       scale
} bind def

% styles
/solid { [] 0 setdash } bind def
/dashed { [9 InvScaleFactor mul dup ] 0 setdash } bind def
/dotted { [1 InvScaleFactor mul 6 InvScaleFactor mul] 0 setdash } bind def
/invis {/fill {newpath} def /stroke {newpath} def /show {pop newpath} def} bind def
/bold { 2 setlinewidth } bind def
/filled { } bind def
/unfilled { } bind def
/rounded { } bind def
/diagonals { } bind def
/tapered { } bind def

% hooks for setting color 
/nodecolor { sethsbcolor } bind def
/edgecolor { sethsbcolor } bind def
/graphcolor { sethsbcolor } bind def
/nopcolor {pop pop pop} bind def

/beginpage {	% i j npages
	/npages exch def
	/j exch def
	/i exch def
	/str 10 string def
	npages 1 gt {
		gsave
			coordfont setfont
			0 0 moveto
			(\() show i str cvs show (,) show j str cvs show (\)) show
		grestore
	} if
} bind def

/set_font {
	findfont exch
	scalefont setfont
} def

% draw text fitted to its expected width
/alignedtext {			% width text
	/text exch def
	/width exch def
	gsave
		width 0 gt {
			[] 0 setdash
			text stringwidth pop width exch sub text length div 0 text ashow
		} if
	grestore
} def

/boxprim {				% xcorner ycorner xsize ysize
		4 2 roll
		moveto
		2 copy
		exch 0 rlineto
		0 exch rlineto
		pop neg 0 rlineto
		closepath
} bind def

/ellipse_path {
	/ry exch def
	/rx exch def
	/y exch def
	/x exch def
	matrix currentmatrix
	newpath
	x y translate
	rx ry scale
	0 0 1 0 360 arc
	setmatrix
} bind def

/endpage { showpage } bind def
/showpage { } def

/layercolorseq
	[	% layer color sequence - darkest to lightest
		[0 0 0]
		[.2 .8 .8]
		[.4 .8 .8]
		[.6 .8 .8]
		[.8 .8 .8]
	]
def

/layerlen layercolorseq length def

/setlayer {/maxlayer exch def /curlayer exch def
	layercolorseq curlayer 1 sub layerlen mod get
	aload pop sethsbcolor
	/nodecolor {nopcolor} def
	/edgecolor {nopcolor} def
	/graphcolor {nopcolor} def
} bind def

/onlayer { curlayer ne {invis} if } def

/onlayers {
	/myupper exch def
	/mylower exch def
	curlayer mylower lt
	curlayer myupper gt
	or
	{invis} if
} def

/curlayer 0 def

%%EndResource
%%EndProlog
%%BeginSetup
14 default-font-family set_font
1 setmiterlimit
% /arrowlength 10 def
% /arrowwidth 5 def

% make sure pdfmark is harmless for PS-interpreters other than Distiller
/pdfmark where {pop} {userdict /pdfmark /cleartomark load put} ifelse
% make '<<' and '>>' safe on PS Level 1 devices
/languagelevel where {pop languagelevel}{1} ifelse
2 lt {
    userdict (<<) cvn ([) cvn load put
    userdict (>>) cvn ([) cvn load put
} if

%%EndSetup
setupLatin1
%%Page: 1 1
%%PageBoundingBox: 36 36 461 872
%%PageOrientation: Portrait
0 0 1 beginpage
gsave
36 36 425 836 boxprim clip newpath
1 1 set_scale 0 rotate 40 40 translate
% entree
gsave
1 setlinewidth
0 0 0 nodecolor
120 810 32.25 18 ellipse_path stroke
0 0 0 nodecolor
14 /Times-Roman set_font
103 806.3 moveto 34 (entree) alignedtext
grestore
% 14
gsave
1 setlinewidth
0 0 0 nodecolor
120 738 27 18 ellipse_path stroke
0 0 0 nodecolor
14 /Times-Roman set_font
113 734.3 moveto 14 (14) alignedtext
grestore
% entree--14
gsave
1 setlinewidth
0 0 0 edgecolor
newpath 120 791.7 moveto
120 780.85 120 766.92 120 756.1 curveto
stroke
grestore
% 24
gsave
1 setlinewidth
0 0 0 nodecolor
120 666 27 18 ellipse_path stroke
0 0 0 nodecolor
14 /Times-Roman set_font
113 662.3 moveto 14 (24) alignedtext
grestore
% 14--24
gsave
1 setlinewidth
0 0 0 edgecolor
newpath 120 719.7 moveto
120 708.85 120 694.92 120 684.1 curveto
stroke
grestore
% 34
gsave
1 setlinewidth
0 0 0 nodecolor
84 594 27 18 ellipse_path stroke
0 0 0 nodecolor
14 /Times-Roman set_font
77 590.3 moveto 14 (34) alignedtext
grestore
% 24--34
gsave
1 setlinewidth
0 0 0 edgecolor
newpath 111.65 648.76 moveto
105.83 637.46 98.11 622.44 92.3 611.15 curveto
stroke
grestore
% 23
gsave
1 setlinewidth
0 0 0 nodecolor
156 594 27 18 ellipse_path stroke
0 0 0 nodecolor
14 /Times-Roman set_font
149 590.3 moveto 14 (23) alignedtext
grestore
% 24--23
gsave
1 setlinewidth
0 0 0 edgecolor
newpath 128.35 648.76 moveto
134.17 637.46 141.89 622.44 147.7 611.15 curveto
stroke
grestore
% 44
gsave
1 setlinewidth
0 0 0 nodecolor
84 522 27 18 ellipse_path stroke
0 0 0 nodecolor
14 /Times-Roman set_font
77 518.3 moveto 14 (44) alignedtext
grestore
% 34--44
gsave
1 setlinewidth
0 0 0 edgecolor
newpath 84 575.7 moveto
84 564.85 84 550.92 84 540.1 curveto
stroke
grestore
% 43
gsave
1 setlinewidth
0 0 0 nodecolor
84 450 27 18 ellipse_path stroke
0 0 0 nodecolor
14 /Times-Roman set_font
77 446.3 moveto 14 (43) alignedtext
grestore
% 44--43
gsave
1 setlinewidth
0 0 0 edgecolor
newpath 84 503.7 moveto
84 492.85 84 478.92 84 468.1 curveto
stroke
grestore
% 42
gsave
1 setlinewidth
0 0 0 nodecolor
84 378 27 18 ellipse_path stroke
0 0 0 nodecolor
14 /Times-Roman set_font
77 374.3 moveto 14 (42) alignedtext
grestore
% 43--42
gsave
1 setlinewidth
0 0 0 edgecolor
newpath 84 431.7 moveto
84 420.85 84 406.92 84 396.1 curveto
stroke
grestore
% 52
gsave
1 setlinewidth
0 0 0 nodecolor
84 306 27 18 ellipse_path stroke
0 0 0 nodecolor
14 /Times-Roman set_font
77 302.3 moveto 14 (52) alignedtext
grestore
% 42--52
gsave
1 setlinewidth
0 0 0 edgecolor
newpath 84 359.7 moveto
84 348.85 84 334.92 84 324.1 curveto
stroke
grestore
% 51
gsave
1 setlinewidth
0 0 0 nodecolor
29 234 27 18 ellipse_path stroke
0 0 0 nodecolor
14 /Times-Roman set_font
22 230.3 moveto 14 (51) alignedtext
grestore
% 52--51
gsave
1 setlinewidth
0 0 0 edgecolor
newpath 72.07 289.81 moveto
62.84 278.07 50.13 261.89 40.91 250.16 curveto
stroke
grestore
% 53
gsave
1 setlinewidth
0 0 0 nodecolor
102 234 27 18 ellipse_path stroke
0 0 0 nodecolor
14 /Times-Roman set_font
95 230.3 moveto 14 (53) alignedtext
grestore
% 52--53
gsave
1 setlinewidth
0 0 0 edgecolor
newpath 88.36 288.05 moveto
91.19 277.05 94.86 262.76 97.68 251.79 curveto
stroke
grestore
% 50
gsave
1 setlinewidth
0 0 0 nodecolor
27 162 27 18 ellipse_path stroke
0 0 0 nodecolor
14 /Times-Roman set_font
20 158.3 moveto 14 (50) alignedtext
grestore
% 51--50
gsave
1 setlinewidth
0 0 0 edgecolor
newpath 28.51 215.7 moveto
28.2 204.85 27.8 190.92 27.49 180.1 curveto
stroke
grestore
% sortie
gsave
1 setlinewidth
0 0 0 nodecolor
103 162 30.32 18 ellipse_path stroke
0 0 0 nodecolor
14 /Times-Roman set_font
87.5 158.3 moveto 31 (sortie) alignedtext
grestore
% 53--sortie
gsave
1 setlinewidth
0 0 0 edgecolor
newpath 102.25 215.7 moveto
102.4 204.85 102.6 190.92 102.76 180.1 curveto
stroke
grestore
% 33
gsave
1 setlinewidth
0 0 0 nodecolor
156 522 27 18 ellipse_path stroke
0 0 0 nodecolor
14 /Times-Roman set_font
149 518.3 moveto 14 (33) alignedtext
grestore
% 23--33
gsave
1 setlinewidth
0 0 0 edgecolor
newpath 156 575.7 moveto
156 564.85 156 550.92 156 540.1 curveto
stroke
grestore
% 22
gsave
1 setlinewidth
0 0 0 nodecolor
228 522 27 18 ellipse_path stroke
0 0 0 nodecolor
14 /Times-Roman set_font
221 518.3 moveto 14 (22) alignedtext
grestore
% 23--22
gsave
1 setlinewidth
0 0 0 edgecolor
newpath 170.57 578.83 moveto
182.98 566.77 200.73 549.51 213.2 537.38 curveto
stroke
grestore
% 12
gsave
1 setlinewidth
0 0 0 nodecolor
210 450 27 18 ellipse_path stroke
0 0 0 nodecolor
14 /Times-Roman set_font
203 446.3 moveto 14 (12) alignedtext
grestore
% 22--12
gsave
1 setlinewidth
0 0 0 edgecolor
newpath 223.64 504.05 moveto
220.81 493.05 217.14 478.76 214.32 467.79 curveto
stroke
grestore
% 32
gsave
1 setlinewidth
0 0 0 nodecolor
282 450 27 18 ellipse_path stroke
0 0 0 nodecolor
14 /Times-Roman set_font
275 446.3 moveto 14 (32) alignedtext
grestore
% 22--32
gsave
1 setlinewidth
0 0 0 edgecolor
newpath 239.98 505.46 moveto
248.93 493.86 261.11 478.08 270.05 466.49 curveto
stroke
grestore
% 13
gsave
1 setlinewidth
0 0 0 nodecolor
210 378 27 18 ellipse_path stroke
0 0 0 nodecolor
14 /Times-Roman set_font
203 374.3 moveto 14 (13) alignedtext
grestore
% 12--13
gsave
1 setlinewidth
0 0 0 edgecolor
newpath 210 431.7 moveto
210 420.85 210 406.92 210 396.1 curveto
stroke
grestore
% 3
gsave
1 setlinewidth
0 0 0 nodecolor
210 306 27 18 ellipse_path stroke
0 0 0 nodecolor
14 /Times-Roman set_font
206.5 302.3 moveto 7 (3) alignedtext
grestore
% 13--3
gsave
1 setlinewidth
0 0 0 edgecolor
newpath 210 359.7 moveto
210 348.85 210 334.92 210 324.1 curveto
stroke
grestore
% 2
gsave
1 setlinewidth
0 0 0 nodecolor
210 234 27 18 ellipse_path stroke
0 0 0 nodecolor
14 /Times-Roman set_font
206.5 230.3 moveto 7 (2) alignedtext
grestore
% 3--2
gsave
1 setlinewidth
0 0 0 edgecolor
newpath 210 287.7 moveto
210 276.85 210 262.92 210 252.1 curveto
stroke
grestore
% 31
gsave
1 setlinewidth
0 0 0 nodecolor
282 378 27 18 ellipse_path stroke
0 0 0 nodecolor
14 /Times-Roman set_font
275 374.3 moveto 14 (31) alignedtext
grestore
% 32--31
gsave
1 setlinewidth
0 0 0 edgecolor
newpath 282 431.7 moveto
282 420.85 282 406.92 282 396.1 curveto
stroke
grestore
% 41
gsave
1 setlinewidth
0 0 0 nodecolor
282 306 27 18 ellipse_path stroke
0 0 0 nodecolor
14 /Times-Roman set_font
275 302.3 moveto 14 (41) alignedtext
grestore
% 31--41
gsave
1 setlinewidth
0 0 0 edgecolor
newpath 282 359.7 moveto
282 348.85 282 334.92 282 324.1 curveto
stroke
grestore
% 21
gsave
1 setlinewidth
0 0 0 nodecolor
354 306 27 18 ellipse_path stroke
0 0 0 nodecolor
14 /Times-Roman set_font
347 302.3 moveto 14 (21) alignedtext
grestore
% 31--21
gsave
1 setlinewidth
0 0 0 edgecolor
newpath 296.57 362.83 moveto
308.98 350.77 326.73 333.51 339.2 321.38 curveto
stroke
grestore
% 20
gsave
1 setlinewidth
0 0 0 nodecolor
318 234 27 18 ellipse_path stroke
0 0 0 nodecolor
14 /Times-Roman set_font
311 230.3 moveto 14 (20) alignedtext
grestore
% 21--20
gsave
1 setlinewidth
0 0 0 edgecolor
newpath 345.65 288.76 moveto
339.83 277.46 332.11 262.44 326.3 251.15 curveto
stroke
grestore
% 11
gsave
1 setlinewidth
0 0 0 nodecolor
390 234 27 18 ellipse_path stroke
0 0 0 nodecolor
14 /Times-Roman set_font
383 230.3 moveto 14 (11) alignedtext
grestore
% 21--11
gsave
1 setlinewidth
0 0 0 edgecolor
newpath 362.35 288.76 moveto
368.17 277.46 375.89 262.44 381.7 251.15 curveto
stroke
grestore
% 30
gsave
1 setlinewidth
0 0 0 nodecolor
318 162 27 18 ellipse_path stroke
0 0 0 nodecolor
14 /Times-Roman set_font
311 158.3 moveto 14 (30) alignedtext
grestore
% 20--30
gsave
1 setlinewidth
0 0 0 edgecolor
newpath 318 215.7 moveto
318 204.85 318 190.92 318 180.1 curveto
stroke
grestore
% 40
gsave
1 setlinewidth
0 0 0 nodecolor
318 90 27 18 ellipse_path stroke
0 0 0 nodecolor
14 /Times-Roman set_font
311 86.3 moveto 14 (40) alignedtext
grestore
% 30--40
gsave
1 setlinewidth
0 0 0 edgecolor
newpath 318 143.7 moveto
318 132.85 318 118.92 318 108.1 curveto
stroke
grestore
% 10
gsave
1 setlinewidth
0 0 0 nodecolor
390 162 27 18 ellipse_path stroke
0 0 0 nodecolor
14 /Times-Roman set_font
383 158.3 moveto 14 (10) alignedtext
grestore
% 11--10
gsave
1 setlinewidth
0 0 0 edgecolor
newpath 390 215.7 moveto
390 204.85 390 190.92 390 180.1 curveto
stroke
grestore
% 0
gsave
1 setlinewidth
0 0 0 nodecolor
390 90 27 18 ellipse_path stroke
0 0 0 nodecolor
14 /Times-Roman set_font
386.5 86.3 moveto 7 (0) alignedtext
grestore
% 10--0
gsave
1 setlinewidth
0 0 0 edgecolor
newpath 390 143.7 moveto
390 132.85 390 118.92 390 108.1 curveto
stroke
grestore
% 1
gsave
1 setlinewidth
0 0 0 nodecolor
390 18 27 18 ellipse_path stroke
0 0 0 nodecolor
14 /Times-Roman set_font
386.5 14.3 moveto 7 (1) alignedtext
grestore
% 0--1
gsave
1 setlinewidth
0 0 0 edgecolor
newpath 390 71.7 moveto
390 60.85 390 46.92 390 36.1 curveto
stroke
grestore
endpage
showpage
grestore
%%PageTrailer
%%EndPage: 1
%%Trailer
%%Pages: 1
%%BoundingBox: 36 36 461 872
end
restore
%%EOF
