graph { 
entree -- 14
14 -- 24
24 -- 34
34 -- 44
44 -- 43
43 -- 42
42 -- 52
52 -- 51
52 -- 53
51 -- 50
53 -- sortie
24 -- 23
23 -- 33
23 -- 22
22 -- 12
12 -- 13
13 -- 3
3 -- 2
22 -- 32
32 -- 31
31 -- 41
31 -- 21
21 -- 20
20 -- 30
30 -- 40
21 -- 11
11 -- 10
10 -- 0
0 -- 1
}
