%!PS-Adobe-3.0
%%Creator: graphviz version 2.36.0 (20140111.2315)
%%Title: %3
%%Pages: (atend)
%%BoundingBox: (atend)
%%EndComments
save
%%BeginProlog
/DotDict 200 dict def
DotDict begin

/setupLatin1 {
mark
/EncodingVector 256 array def
 EncodingVector 0

ISOLatin1Encoding 0 255 getinterval putinterval
EncodingVector 45 /hyphen put

% Set up ISO Latin 1 character encoding
/starnetISO {
        dup dup findfont dup length dict begin
        { 1 index /FID ne { def }{ pop pop } ifelse
        } forall
        /Encoding EncodingVector def
        currentdict end definefont
} def
/Times-Roman starnetISO def
/Times-Italic starnetISO def
/Times-Bold starnetISO def
/Times-BoldItalic starnetISO def
/Helvetica starnetISO def
/Helvetica-Oblique starnetISO def
/Helvetica-Bold starnetISO def
/Helvetica-BoldOblique starnetISO def
/Courier starnetISO def
/Courier-Oblique starnetISO def
/Courier-Bold starnetISO def
/Courier-BoldOblique starnetISO def
cleartomark
} bind def

%%BeginResource: procset graphviz 0 0
/coord-font-family /Times-Roman def
/default-font-family /Times-Roman def
/coordfont coord-font-family findfont 8 scalefont def

/InvScaleFactor 1.0 def
/set_scale {
       dup 1 exch div /InvScaleFactor exch def
       scale
} bind def

% styles
/solid { [] 0 setdash } bind def
/dashed { [9 InvScaleFactor mul dup ] 0 setdash } bind def
/dotted { [1 InvScaleFactor mul 6 InvScaleFactor mul] 0 setdash } bind def
/invis {/fill {newpath} def /stroke {newpath} def /show {pop newpath} def} bind def
/bold { 2 setlinewidth } bind def
/filled { } bind def
/unfilled { } bind def
/rounded { } bind def
/diagonals { } bind def
/tapered { } bind def

% hooks for setting color 
/nodecolor { sethsbcolor } bind def
/edgecolor { sethsbcolor } bind def
/graphcolor { sethsbcolor } bind def
/nopcolor {pop pop pop} bind def

/beginpage {	% i j npages
	/npages exch def
	/j exch def
	/i exch def
	/str 10 string def
	npages 1 gt {
		gsave
			coordfont setfont
			0 0 moveto
			(\() show i str cvs show (,) show j str cvs show (\)) show
		grestore
	} if
} bind def

/set_font {
	findfont exch
	scalefont setfont
} def

% draw text fitted to its expected width
/alignedtext {			% width text
	/text exch def
	/width exch def
	gsave
		width 0 gt {
			[] 0 setdash
			text stringwidth pop width exch sub text length div 0 text ashow
		} if
	grestore
} def

/boxprim {				% xcorner ycorner xsize ysize
		4 2 roll
		moveto
		2 copy
		exch 0 rlineto
		0 exch rlineto
		pop neg 0 rlineto
		closepath
} bind def

/ellipse_path {
	/ry exch def
	/rx exch def
	/y exch def
	/x exch def
	matrix currentmatrix
	newpath
	x y translate
	rx ry scale
	0 0 1 0 360 arc
	setmatrix
} bind def

/endpage { showpage } bind def
/showpage { } def

/layercolorseq
	[	% layer color sequence - darkest to lightest
		[0 0 0]
		[.2 .8 .8]
		[.4 .8 .8]
		[.6 .8 .8]
		[.8 .8 .8]
	]
def

/layerlen layercolorseq length def

/setlayer {/maxlayer exch def /curlayer exch def
	layercolorseq curlayer 1 sub layerlen mod get
	aload pop sethsbcolor
	/nodecolor {nopcolor} def
	/edgecolor {nopcolor} def
	/graphcolor {nopcolor} def
} bind def

/onlayer { curlayer ne {invis} if } def

/onlayers {
	/myupper exch def
	/mylower exch def
	curlayer mylower lt
	curlayer myupper gt
	or
	{invis} if
} def

/curlayer 0 def

%%EndResource
%%EndProlog
%%BeginSetup
14 default-font-family set_font
1 setmiterlimit
% /arrowlength 10 def
% /arrowwidth 5 def

% make sure pdfmark is harmless for PS-interpreters other than Distiller
/pdfmark where {pop} {userdict /pdfmark /cleartomark load put} ifelse
% make '<<' and '>>' safe on PS Level 1 devices
/languagelevel where {pop languagelevel}{1} ifelse
2 lt {
    userdict (<<) cvn ([) cvn load put
    userdict (>>) cvn ([) cvn load put
} if

%%EndSetup
setupLatin1
%%Page: 1 1
%%PageBoundingBox: 36 36 185 296
%%PageOrientation: Portrait
0 0 1 beginpage
gsave
36 36 149 260 boxprim clip newpath
1 1 set_scale 0 rotate 40 40 translate
% A
gsave
1 setlinewidth
0.66667 1 1 nodecolor
54 234 27 18 ellipse_path stroke
0 0 0 nodecolor
14 /Times-Roman set_font
49 230.3 moveto 10 (A) alignedtext
grestore
% B
gsave
1 setlinewidth
0 0 0 nodecolor
82 162 27 18 ellipse_path stroke
0 0 0 nodecolor
14 /Times-Roman set_font
77 158.3 moveto 10 (B) alignedtext
grestore
% A--B
gsave
1 setlinewidth
0.66667 1 1 edgecolor
newpath 60.64 216.41 moveto
65.1 205.25 70.96 190.6 75.41 179.47 curveto
stroke
grestore
% C
gsave
1 setlinewidth
0 0 0 nodecolor
27 90 27 18 ellipse_path stroke
0 0 0 nodecolor
14 /Times-Roman set_font
22 86.3 moveto 10 (C) alignedtext
grestore
% A--C
gsave
1 setlinewidth
0.66667 1 1 edgecolor
newpath 50.74 215.87 moveto
45.55 188.58 35.47 135.52 30.27 108.19 curveto
stroke
grestore
% B--C
gsave
1 setlinewidth
0 0 0 edgecolor
newpath 70.07 145.81 moveto
60.84 134.07 48.13 117.89 38.91 106.16 curveto
stroke
grestore
% D
gsave
1 setlinewidth
0 0 0 nodecolor
37 18 27 18 ellipse_path stroke
0 0 0 nodecolor
14 /Times-Roman set_font
32 14.3 moveto 10 (D) alignedtext
grestore
% B--D
gsave
1 setlinewidth
0.66667 1 1 edgecolor
newpath 79.63 143.93 moveto
76.82 125.76 71.42 96.34 63 72 curveto
58.58 59.22 51.8 45.52 46.28 35.26 curveto
stroke
grestore
% E
gsave
1 setlinewidth
0 0 0 nodecolor
114 18 27 18 ellipse_path stroke
0 0 0 nodecolor
14 /Times-Roman set_font
109.5 14.3 moveto 9 (E) alignedtext
grestore
% B--E
gsave
1 setlinewidth
0.66667 1 1 edgecolor
newpath 86.8 143.88 moveto
89.63 133.53 93.19 120.05 96 108 curveto
101.79 83.13 107.46 54.09 110.85 36.13 curveto
stroke
grestore
% C--D
gsave
1 setlinewidth
0 0 0 edgecolor
newpath 29.42 72.05 moveto
30.97 61.21 32.97 47.18 34.53 36.28 curveto
stroke
grestore
% C--E
gsave
1 setlinewidth
0 0 0 edgecolor
newpath 43.77 75.5 moveto
59.18 63.11 81.89 44.84 97.28 32.46 curveto
stroke
grestore
endpage
showpage
grestore
%%PageTrailer
%%EndPage: 1
%%Trailer
%%Pages: 1
%%BoundingBox: 36 36 185 296
end
restore
%%EOF
